{"failedCount":0,"prefixedPath":"src\/test\/java\/demo\/reqres\/users.feature","packageQualifiedName":"src.test.java.demo.reqres.users","loopIndex":-1,"relativePath":"src\/test\/java\/demo\/reqres\/users.feature","scenarioResults":[{"sectionIndex":0,"stepResults":[{"result":{"nanos":63206800,"millis":63.2068,"status":"passed"},"step":{"background":true,"line":5,"prefix":"*","index":0,"text":"url 'https:\/\/reqres.in\/api'"}},{"result":{"nanos":449900,"millis":0.4499,"status":"passed"},"step":{"line":8,"prefix":"Given","index":0,"text":"path 'users'"}},{"result":{"nanos":636560900,"millis":636.5609,"status":"passed"},"step":{"line":9,"prefix":"When","index":1,"text":"method get"},"stepLog":"12:25:57.024 request:\n1 > GET https:\/\/reqres.in\/api\/users\n1 > Host: reqres.in\n1 > Connection: Keep-Alive\n1 > User-Agent: Apache-HttpClient\/4.5.13 (Java\/11.0.12)\n1 > Accept-Encoding: gzip,deflate\n\n\n12:25:57.283 response time in milliseconds: 257\n1 < 200\n1 < Date: Sun, 03 Oct 2021 17:25:56 GMT\n1 < Content-Type: application\/json; charset=utf-8\n1 < Transfer-Encoding: chunked\n1 < Connection: keep-alive\n1 < x-powered-by: Express\n1 < access-control-allow-origin: *\n1 < etag: W\/\"3e4-2RLXvr5wTg9YQ6aH95CkYoFNuO8\"\n1 < via: 1.1 vegur\n1 < Cache-Control: max-age=14400\n1 < CF-Cache-Status: HIT\n1 < Age: 1548\n1 < Expect-CT: max-age=604800, report-uri=\"https:\/\/report-uri.cloudflare.com\/cdn-cgi\/beacon\/expect-ct\"\n1 < Report-To: {\"endpoints\":[{\"url\":\"https:\\\/\\\/a.nel.cloudflare.com\\\/report\\\/v3?s=FfMEsLFLWyaYSvkdwz8dDzMAD7nBfIYS90F4TbTLNDzSZo9Rctj95JvL0HhnRnlLrECGuBm8wBIEOHTuHubvmiyy50E32WyvxfBcoQwnKlmem9Xja19IsyrgBXc%3D\"}],\"group\":\"cf-nel\",\"max_age\":604800}\n1 < NEL: {\"success_fraction\":0,\"report_to\":\"cf-nel\",\"max_age\":604800}\n1 < Vary: Accept-Encoding\n1 < Server: cloudflare\n1 < CF-RAY: 6987df656b486390-ORD\n1 < alt-svc: h3=\":443\"; ma=86400, h3-29=\":443\"; ma=86400, h3-28=\":443\"; ma=86400, h3-27=\":443\"; ma=86400\n{\"page\":1,\"per_page\":6,\"total\":12,\"total_pages\":2,\"data\":[{\"id\":1,\"email\":\"george.bluth@reqres.in\",\"first_name\":\"George\",\"last_name\":\"Bluth\",\"avatar\":\"https:\/\/reqres.in\/img\/faces\/1-image.jpg\"},{\"id\":2,\"email\":\"janet.weaver@reqres.in\",\"first_name\":\"Janet\",\"last_name\":\"Weaver\",\"avatar\":\"https:\/\/reqres.in\/img\/faces\/2-image.jpg\"},{\"id\":3,\"email\":\"emma.wong@reqres.in\",\"first_name\":\"Emma\",\"last_name\":\"Wong\",\"avatar\":\"https:\/\/reqres.in\/img\/faces\/3-image.jpg\"},{\"id\":4,\"email\":\"eve.holt@reqres.in\",\"first_name\":\"Eve\",\"last_name\":\"Holt\",\"avatar\":\"https:\/\/reqres.in\/img\/faces\/4-image.jpg\"},{\"id\":5,\"email\":\"charles.morris@reqres.in\",\"first_name\":\"Charles\",\"last_name\":\"Morris\",\"avatar\":\"https:\/\/reqres.in\/img\/faces\/5-image.jpg\"},{\"id\":6,\"email\":\"tracey.ramos@reqres.in\",\"first_name\":\"Tracey\",\"last_name\":\"Ramos\",\"avatar\":\"https:\/\/reqres.in\/img\/faces\/6-image.jpg\"}],\"support\":{\"url\":\"https:\/\/reqres.in\/#support-heading\",\"text\":\"To keep ReqRes free, contributions towards server costs are appreciated!\"}}\n"},{"result":{"nanos":17800,"millis":0.0178,"status":"passed"},"step":{"line":10,"prefix":"Then","index":2,"text":"status 200"}},{"result":{"nanos":33495800,"millis":33.4958,"status":"passed"},"step":{"comments":["#    And print \"-------->\",response.data[0]","#    And print \"======>\",response.data[0].id","#    And print \"*******\",response.data[0]"],"line":14,"prefix":"And","index":3,"text":"match response.data[0].id == 1"}},{"result":{"nanos":14867200,"millis":14.8672,"status":"passed"},"step":{"comments":["# ===> To drill down to the first user from the above repose and validate the details of user 1"],"line":17,"prefix":"*","index":4,"text":"def first = response.data[0]"}},{"result":{"nanos":6296800,"millis":6.2968,"status":"passed"},"step":{"line":19,"prefix":"Given","index":5,"text":"path 'users', response.data[0].id"}},{"result":{"nanos":202132200,"millis":202.1322,"status":"passed"},"step":{"line":20,"prefix":"When","index":6,"text":"method get"},"stepLog":"12:25:57.359 request:\n2 > GET https:\/\/reqres.in\/api\/users\/1\n2 > Host: reqres.in\n2 > Connection: Keep-Alive\n2 > User-Agent: Apache-HttpClient\/4.5.13 (Java\/11.0.12)\n2 > Accept-Encoding: gzip,deflate\n\n\n12:25:57.560 response time in milliseconds: 201\n2 < 200\n2 < Date: Sun, 03 Oct 2021 17:25:56 GMT\n2 < Content-Type: application\/json; charset=utf-8\n2 < Transfer-Encoding: chunked\n2 < Connection: keep-alive\n2 < x-powered-by: Express\n2 < access-control-allow-origin: *\n2 < etag: W\/\"118-P3iKcVpIgCj9HqYeOOrGLX8qJVc\"\n2 < via: 1.1 vegur\n2 < Cache-Control: max-age=14400\n2 < CF-Cache-Status: HIT\n2 < Age: 2390\n2 < Expect-CT: max-age=604800, report-uri=\"https:\/\/report-uri.cloudflare.com\/cdn-cgi\/beacon\/expect-ct\"\n2 < Report-To: {\"endpoints\":[{\"url\":\"https:\\\/\\\/a.nel.cloudflare.com\\\/report\\\/v3?s=18UCjxa0Rh4%2FCl%2B2%2BDF0e2Ccok1SkswMK0HVjyxtKEdi1mdhk83U%2FD3NHSvSMN9aFc1vMLj6XB3AjMowKC%2Bt%2BXnPJoCqCt3SA6%2BAeVuwsaNzNNVxIH7kKsDzh5E%3D\"}],\"group\":\"cf-nel\",\"max_age\":604800}\n2 < NEL: {\"success_fraction\":0,\"report_to\":\"cf-nel\",\"max_age\":604800}\n2 < Vary: Accept-Encoding\n2 < Server: cloudflare\n2 < CF-RAY: 6987df66cbbef242-ORD\n2 < alt-svc: h3=\":443\"; ma=86400, h3-29=\":443\"; ma=86400, h3-28=\":443\"; ma=86400, h3-27=\":443\"; ma=86400\n{\"data\":{\"id\":1,\"email\":\"george.bluth@reqres.in\",\"first_name\":\"George\",\"last_name\":\"Bluth\",\"avatar\":\"https:\/\/reqres.in\/img\/faces\/1-image.jpg\"},\"support\":{\"url\":\"https:\/\/reqres.in\/#support-heading\",\"text\":\"To keep ReqRes free, contributions towards server costs are appreciated!\"}}\n"},{"result":{"nanos":6700,"millis":0.0067,"status":"passed"},"step":{"line":21,"prefix":"Then","index":7,"text":"status 200"}},{"result":{"nanos":630600,"millis":0.6306,"status":"passed"},"step":{"comments":["#Note ---> we can only use $ method in match but not in print"],"line":23,"prefix":"And","index":8,"text":"match $.data.id == 1"}},{"result":{"nanos":1090600,"millis":1.0906,"status":"passed"},"step":{"line":24,"prefix":"And","index":9,"text":"match response.data.email == \"george.bluth@reqres.in\""}}],"executorName":"main","line":7,"name":"To list out all users in reqres.in\/api and check if the first user matches","description":"","durationMillis":958.7553,"startTime":1633281956592,"failed":false,"refId":"[1:7]","endTime":1633281957562,"exampleIndex":-1},{"sectionIndex":1,"stepResults":[{"result":{"nanos":922200,"millis":0.9222,"status":"passed"},"step":{"background":true,"line":5,"prefix":"*","index":0,"text":"url 'https:\/\/reqres.in\/api'"}},{"result":{"nanos":1818300,"millis":1.8183,"status":"passed"},"step":{"endLine":33,"line":27,"prefix":"*","docString":"{\n    \"email\": \"eve.holt@reqres.in\",\n    \"password\": \"pistol\"\n}","index":0,"text":"def newUser ="}},{"result":{"nanos":663700,"millis":0.6637,"status":"passed"},"step":{"line":35,"prefix":"And","index":1,"text":"path 'register'"}},{"result":{"nanos":329100,"millis":0.3291,"status":"passed"},"step":{"line":36,"prefix":"And","index":2,"text":"request newUser"}},{"result":{"nanos":396959600,"millis":396.9596,"status":"passed"},"step":{"line":37,"prefix":"When","index":3,"text":"method post"},"stepLog":"12:25:57.604 request:\n1 > POST https:\/\/reqres.in\/api\/register\n1 > Content-Type: application\/json; charset=UTF-8\n1 > Content-Length: 50\n1 > Host: reqres.in\n1 > Connection: Keep-Alive\n1 > User-Agent: Apache-HttpClient\/4.5.13 (Java\/11.0.12)\n1 > Accept-Encoding: gzip,deflate\n{\"email\":\"eve.holt@reqres.in\",\"password\":\"pistol\"}\n\n12:25:57.970 response time in milliseconds: 366\n1 < 200\n1 < Date: Sun, 03 Oct 2021 17:25:57 GMT\n1 < Content-Type: application\/json; charset=utf-8\n1 < Content-Length: 36\n1 < Connection: keep-alive\n1 < x-powered-by: Express\n1 < access-control-allow-origin: *\n1 < etag: W\/\"24-4iP0za1geN2he+ohu8F0FhCjLks\"\n1 < via: 1.1 vegur\n1 < CF-Cache-Status: DYNAMIC\n1 < Expect-CT: max-age=604800, report-uri=\"https:\/\/report-uri.cloudflare.com\/cdn-cgi\/beacon\/expect-ct\"\n1 < Report-To: {\"endpoints\":[{\"url\":\"https:\\\/\\\/a.nel.cloudflare.com\\\/report\\\/v3?s=TZ6aEB1OaZODLhwr7dM9deIs%2Fc6DmOG3U4a4D0ytAiT611w6%2F9h4bU%2BrZ0urHiZuXWv%2FB616raqjieRKN7thwo6FZWRMXKiAaRNFprWS0MwHNH4GtLpLbgpp4cc%3D\"}],\"group\":\"cf-nel\",\"max_age\":604800}\n1 < NEL: {\"success_fraction\":0,\"report_to\":\"cf-nel\",\"max_age\":604800}\n1 < Server: cloudflare\n1 < CF-RAY: 6987df6878e1632a-ORD\n1 < alt-svc: h3=\":443\"; ma=86400, h3-29=\":443\"; ma=86400, h3-28=\":443\"; ma=86400, h3-27=\":443\"; ma=86400\n{\"id\":4,\"token\":\"QpwL5tke4Pnpja7X4\"}\n"},{"result":{"nanos":7000,"millis":0.007,"status":"passed"},"step":{"line":38,"prefix":"Then","index":4,"text":"status 200"}},{"result":{"nanos":30983800,"millis":30.9838,"status":"passed"},"step":{"line":39,"prefix":"And","index":5,"text":"print response"},"stepLog":"12:25:58.001 [print] {\n  \"id\": 4,\n  \"token\": \"QpwL5tke4Pnpja7X4\"\n}\n \n"},{"result":{"nanos":654300,"millis":0.6543,"status":"passed"},"step":{"comments":["#* def token = response.token","#* print 'created response token is: ', token"],"line":43,"prefix":"And","index":6,"text":"match response.token == \"QpwL5tke4Pnpja7X4\""}}],"executorName":"main","line":26,"name":"To create a new user and then get it by id","description":"","durationMillis":432.338,"startTime":1633281957569,"failed":false,"refId":"[2:26]","endTime":1633281958002,"exampleIndex":-1}],"callDepth":0,"name":"To list out all user and then to add and modify, delete users later to use in performance","description":"for help, see: https:\/\/github.com\/intuit\/karate\/wiki\/IDE-Support","resultDate":"2021-10-03 12:25:58 PM","durationMillis":1391.0933,"passedCount":2}